9

O       1.15640000      -1.33101000       0.18066000
O       1.83683000       0.84142000       0.18389000
C      -1.54799000      -0.34611000      -0.16725000
C      -0.47070000       0.44012000      -0.07147000
C       0.88224000      -0.14464000       0.10688000
H      -2.54584000       0.07064000      -0.30274000
H      -1.43881000      -1.43034000      -0.10995000
H      -0.53726000       1.52827000      -0.11907000
H       2.68546000       0.36169000       0.30018000
