31
pyadf to get only 10 H2O from file astatine_50H2O.xyz, which is a snap of ZENODO: output/dirac_so/snap-at-1_5100/DC_dyall+dunning_avtz_SAOP_EmbPot_NonFrozeMolecule_At-_0_0_50_1_5100.out
At      -0.05300       -0.30800        0.04600
O       -2.26200       -0.09100        2.63400
H       -2.16400       -0.87800        3.19200
H       -1.76600       -0.27600        1.82100
O        0.67400       -2.44500        2.76800
H        1.01700       -1.73500        3.33400
H        0.33900       -2.01000        1.96800
O        2.83000        1.14500        1.92700
H        2.68500        2.10100        1.85000
H        2.12200        0.72600        1.41300
O       -3.39600       -2.21500       -0.20400
H       -3.72700       -2.87600        0.42400
H       -2.47200       -2.05200        0.04300
O       -0.41700        1.89500        3.14600
H       -1.10600        1.22200        3.26000
H       -0.01000        1.71800        2.28300
O        0.88400        3.42000       -0.55200
H        0.26600        2.69200       -0.38100
H        0.57600        3.84600       -1.36700
O       -2.83200        2.52100       -0.08300
H       -3.66900        2.03000       -0.07100
H       -2.16000        1.89400       -0.39400
O        0.99200       -1.26200       -3.81000
H        0.90300       -1.28100       -2.84400
H        1.37200       -2.11900       -4.06000
O       -2.89600        0.82400       -2.77600
H       -2.32400        0.43000       -2.10000
H       -3.75400        0.97100       -2.34800
O        3.59400       -2.42100        0.38200
H        2.71300       -2.19700        0.72200
H        4.17200       -1.68300        0.63300
