 
 @@@@@@@@@@@@@@@@@@@@@@@@@@@@@@@@@@@@@@@@@@@@@@@@@@
 @                                                @
 @       Reduction of Orbital Space Extent        @
 @                     (ROSE)                     @
 @                                                @
 @ By Bruno Senjean, Souloke Sen, Michal Repisky, @
 @        Gerald Knizia and Lucas Visscher.       @
 @@@@@@@@@@@@@@@@@@@@@@@@@@@@@@@@@@@@@@@@@@@@@@@@@@
 
 Select algebra (rcq) based on the use of restricted and spatial orbitals:
   rcq = 1, 2 or 4  : real, complex or quaternion algebra, respectively
   restricted       :  T
   spatial_orbitals :  T
   rcq              :  1
 
 ####################################
 #      Molecular  Coordinates      #
 ####################################
 
Atom    Z           X           Y           Z
N    7.00 -2.63728290 -0.04074250  0.00007559
H    1.00 -3.07989455  1.81621579 -0.20072671
H    1.00 -3.52012515 -0.96856023 -1.42857627
H    1.00 -3.46490735 -0.62506471  1.62952974
H    1.00  1.14657243 -0.06417510 -0.00119053
H    1.00  3.66705136 -1.47398638  0.00041574
O    8.00  2.96403544  0.20010310  0.00001890
 
 ####################################
 #         Basis set size           #
 #               and                #
 #      Canonical MO Energies       #
 ####################################
 
 No. basis functions    B1:     45
 No. molecular orbitals B1:     43
 No. core      orbitals B1:      2
 No. occupied  orbitals B1:      8
 No. molecular orbitals B2:     13
 No. core frag orbitals   :      1     1
 No. MO   frag orbitals   :      7     6
 
 
 ####################################
 #   Intrinsic Fragments Orbitals   #
 ####################################
 
  Version: Standard 2013
 
  --- Check Symmetrical Orthogonalization --- 
**SUCCESS** Symmetrical orthogonalization was successful, norm:  0.5355E-14
 
 
  --- Check Symmetrical Orthogonalization --- 
**SUCCESS** Symmetrical orthogonalization was successful, norm:  0.9287E-14
 
 @@@@@@@@@@@@@@@@@@@@@@@@@@@@@@@@@@@@@@@@@@@@@@@@@@
 @                                                @
 @        Automated Valence Active Space          @
 @                    (AVAS)                      @
 @                                                @
 @               By Bruno Senjean                 @
 @                                                @
 @@@@@@@@@@@@@@@@@@@@@@@@@@@@@@@@@@@@@@@@@@@@@@@@@@
 
 Threshold:   0.10E+00
 Select algebra (rcq) based on the use of restricted and spatial orbitals:
   rcq = 1, 2 or 4  : real, complex or quaternion algebra, respectively
   restricted       :  T
   spatial_orbitals :  T
   rcq              :  1
 
 ####################################
 #         Basis set size           #
 ####################################
 
 No. basis functions    B1:     45
 No. molecular orbitals B1:     43
 No. occupied  orbitals B1:      8
 No. basis functions    B2:     45
 No. molecular orbitals B2:      4
 
 
 ####################################
 #    Active space construction     #
 ####################################
 
 No. of frozen occupied:      6
 No. of active occupied:      2
 No. of active virtuals:      2
 No. of frozen virtuals:     33
 
 --------- Eigenvalues of the Projected overlap matrices (active MOs) ---------
 
  MO                   eigval
   7       0.9685127968613345
   8       0.9999982140854582
   9       0.9996025257317748
  10       0.9933597399176431
 
 @@@@@@@@@@@@@@@@@@@@@@@@@@@@@@@@@@@@@@@@@@@@@@@@@@
 @                                                @
 @        Automated Valence Active Space          @
 @                    (AVAS)                      @
 @                                                @
 @                     END                        @
 @                                                @
 @@@@@@@@@@@@@@@@@@@@@@@@@@@@@@@@@@@@@@@@@@@@@@@@@@
 
 ####################################
 #  Partial charges of fragments    #
 ####################################
 
       Fragment      Charge
   frag0           0.144507
   frag1          -0.144507
 
 
 
 ####################################
 # Intrinsic Localized occupied MOs #
 ####################################
 
 
 ----- Percentage of localization before the localization procedure ----- 
 
 MO Localized on fragments (with %) (thrs = 0.01, first ten are shown)
  1     -1.2682 [    2]                                             
                [ 99.8]                                             
  2     -1.1641 [    1    2]                                        
                [ 98.6  1.4]                                        
  3     -0.6368 [    1    2]                                        
                [ 96.7  3.3]                                        
  4     -0.6365 [    1    2]                                        
                [ 97.4  2.6]                                        
  5     -0.6183 [    1    2]                                        
                [  9.5 90.5]                                        
  6     -0.4782 [    1    2]                                        
                [ 16.8 83.2]                                        
  7     -0.4207 [    1    2]                                        
                [ 73.5 26.5]                                        
  8     -0.4041 [    2]                                             
                [100.0]                                             
 
 ----- Localization procedure: 2x2 Rotations -----
 (Exponent = 4)
 
 Iter        Function    Gradient
    1        6.158227    7.17E-02
    2        7.711247    1.33E-02
    3        7.734115    2.43E-03
    4        7.734696    1.55E-04
    5        7.734699    5.12E-10
    6        7.734699    5.62E-16
 
 ******************************************
 Final converged values (it, func, fGrad):
    6            7.7346986966488531  5.6242E-16
 ******************************************
 
 
 ----- Percentage of localization after localization ----- 
 
 MO Localized on fragments (with %) (thrs = 0.01, first ten are shown)
  1     -1.0590 [    2]                                             
                [100.0]                                             
  2     -1.0193 [    1]                                             
                [100.0]                                             
  3     -0.6683 [    1]                                             
                [100.0]                                             
  4     -0.6562 [    2]                                             
                [ 99.9]                                             
  5     -0.6367 [    1]                                             
                [100.0]                                             
  6     -0.6328 [    2]                                             
                [100.0]                                             
  7     -0.5507 [    1    2]                                        
                [ 92.7  7.3]                                        
  8     -0.4042 [    2]                                             
                [100.0]                                             
 
 ----- Percentage of localization after recanonization ----- 
 
 MO Localized on fragments (with %) (thrs = 0.01, first ten are shown)
  1     -1.1637 [    1    2]                                        
                [ 98.9  1.1]                                        
  2     -0.6367 [    1]                                             
                [100.0]                                             
  3     -0.6356 [    1]                                             
                [100.0]                                             
  4     -0.4388 [    1    2]                                        
                [ 93.9  6.1]                                        
  5     -1.2677 [    2]                                             
                [100.0]                                             
  6     -0.6128 [    2]                                             
                [ 99.9]                                             
  7     -0.4675 [    2]                                             
                [100.0]                                             
  8     -0.4041 [    2]                                             
                [100.0]                                             
 
 
 ############################################
 # Intrinsic Localized valence virtual MOs  #
 ############################################
 
 
 ----- Percentage of localization before the localization procedure ----- 
 
 MO Localized on fragments (with %) (thrs = 0.01, first ten are shown)
  1      0.2283 [    1    2]                                        
                [  7.9 92.1]                                        
  2      0.3208 [    1]                                             
                [ 99.8]                                             
  3      0.3334 [    1    2]                                        
                [ 90.0 10.0]                                        
  4      0.3357 [    1    2]                                        
                [ 91.6  8.4]                                        
  5      0.4894 [    1    2]                                        
                [ 18.0 82.0]                                        
 
 ----- Localization procedure: 2x2 Rotations -----
 (Exponent = 4)
 
 Iter        Function    Gradient
    1        3.524723    1.74E-01
    2        4.722792    2.93E-02
    3        4.734595    2.61E-03
    4        4.734699    3.68E-07
    5        4.734699    3.67E-12
    6        4.734699    4.24E-17
 
 ******************************************
 Final converged values (it, func, fGrad):
    6            4.7346986969049940  4.2370E-17
 ******************************************
 
 
 ----- Percentage of localization after localization ----- 
 
 MO Localized on fragments (with %) (thrs = 0.01, first ten are shown)
  1      0.2389 [    1]                                             
                [ 99.9]                                             
  2      0.3338 [    1]                                             
                [100.0]                                             
  3      0.3354 [    1]                                             
                [100.0]                                             
  4      0.3377 [    2]                                             
                [100.0]                                             
  5      0.4662 [    1    2]                                        
                [  7.3 92.7]                                        
 
 ####################################
 #      Additional virtuals         #
 ####################################
 
 No. molecular virtuals B3:     30
 No. selected  virtuals B3:     12
 No. reference virtuals B4:     25
 
 
 ####################################
 #   Intrinsic Fragments Orbitals   #
 ####################################
 
  Version: Standard 2013
 
  --- Check Symmetrical Orthogonalization --- 
**SUCCESS** Symmetrical orthogonalization was successful, norm:  0.7173E-14
 
 
  --- Check Symmetrical Orthogonalization --- 
**SUCCESS** Symmetrical orthogonalization was successful, norm:  0.1471E-13
 
 
 ##############################################
 # Intrinsic Localized additional virtual MOs #
 ##############################################
 
 
 ----- Percentage of localization before the localization procedure ----- 
 
 MO Localized on fragments (with %) (thrs = 0.01, first ten are shown)
  1      0.7950 [    1    2]                                        
                [ 98.3  1.7]                                        
  2      0.7954 [    1]                                             
                [ 99.9]                                             
  3      0.9317 [    1    2]                                        
                [ 11.0 89.0]                                        
  4      1.0008 [    1    2]                                        
                [ 46.3 53.7]                                        
  5      1.0440 [    1    2]                                        
                [ 46.2 53.8]                                        
  6      1.3179 [    1    2]                                        
                [ 90.8  9.2]                                        
  7      1.3527 [    1]                                             
                [ 99.7]                                             
  8      1.3598 [    1    2]                                        
                [ 97.6  2.4]                                        
  9      1.5929 [    2]                                             
                [ 99.6]                                             
 10      1.6454 [    1    2]                                        
                [  2.1 97.9]                                        
 11      1.7229 [    1    2]                                        
                [ 70.5 29.5]                                        
 12      1.8739 [    1    2]                                        
                [ 19.1 80.9]                                        
 
 ----- Localization procedure: 2x2 Rotations -----
 (Exponent = 4)
 
 Iter        Function    Gradient
    1        7.981179    3.04E-02
    2       11.375314    7.75E-03
    3       11.436208    2.11E-03
    4       11.438642    6.09E-04
    5       11.438844    8.66E-07
    6       11.438844    1.30E-09
    7       11.438844    1.22E-14
    8       11.438844    1.05E-17
 
 ******************************************
 Final converged values (it, func, fGrad):
    8           11.4388440162894316  1.0533E-17
 ******************************************
 
 
 ----- Percentage of localization after localization ----- 
 
 MO Localized on fragments (with %) (thrs = 0.01, first ten are shown)
  1      0.8748 [    1]                                             
                [100.0]                                             
  2      0.9993 [    1]                                             
                [100.0]                                             
  3      1.0374 [    2]                                             
                [100.0]                                             
  4      1.1241 [    1]                                             
                [100.0]                                             
  5      1.1402 [    1]                                             
                [100.0]                                             
  6      1.2745 [    1]                                             
                [100.0]                                             
  7      1.3473 [    2]                                             
                [100.0]                                             
  8      1.4311 [    1]                                             
                [100.0]                                             
  9      1.4451 [    2]                                             
                [ 99.8]                                             
 10      1.5435 [    1    2]                                        
                [ 81.8 18.2]                                        
 11      1.5916 [    2]                                             
                [100.0]                                             
 12      1.6202 [    2]                                             
                [100.0]                                             
 
 ----- Recanonicalized virtual energies of fragments -----
 
    Fragment          MO              Energy
           1           1         0.238657273
           1           2         0.333404116
           1           3         0.335694577
           1           4         0.795795414
           1           5         0.797973871
           1           6         1.012926426
           1           7         1.318068366
           1           8         1.353479362
           1           9         1.357501722
           1          10         1.751988775
           2           1         0.317395460
           2           2         0.485931431
           2           3         0.939209947
           2           4         1.027958482
           2           5         1.591696033
           2           6         1.646502840
           2           7         1.836936493
 
 ####################################
 #         Starting TESTS           #
 ####################################
 
 The matrix is normalized.
 The matrix is normalized.
 The matrix is normalized.
 Deviation of IBO_RDM from HF_RDM  :  2.860853213321424E-014
 Deviation from orthogonality      :  1.302348999030567E-014
 Deviation from orthogonality      :  1.282906918468777E-014
 Deviation in number of electrons  :  1.421085471520200E-014
 Deviation in number of electrons  : -3.552713678800501E-015
 
 @@@@@@@@@@@@@@@@@@@@@@@@@@@@@@@@@@@@@@@@@@@@@@@@@@
 @                                                @
 @       Reduction of Orbital Space Extent        @
 @                                                @
 @                      END                       @
 @                                                @
 @@@@@@@@@@@@@@@@@@@@@@@@@@@@@@@@@@@@@@@@@@@@@@@@@@
Hartree-Fock energy: -130.74589276444453
Hartree-Fock energy: -55.56739074986917
Hartree-Fock energy: -75.16209450502798
Restart the calculation with the new wavefunction. Check the ouput file.
Hartree-Fock energy: -130.74589276444846

--------------------------------------------------------------------------
------------------------ POST-SCF CALCULATIONS ---------------------------
--------------------------------------------------------------------------

CAS-CI energy (original): -130.74623377231433
CAS-CI energy (ibo     ): -130.74633121314594
CAS-CI energy (avas    ): -130.7465868451265
